{
  "extras": [
    "lazyvim.plugins.extras.coding.tabnine",
    "lazyvim.plugins.extras.editor.navic",
    "lazyvim.plugins.extras.formatting.black",
    "lazyvim.plugins.extras.formatting.prettier",
    "lazyvim.plugins.extras.lang.markdown",
    "lazyvim.plugins.extras.lang.python",
    "lazyvim.plugins.extras.lsp.none-ls",
    "lazyvim.plugins.extras.util.dot"
  ],
  "news": {
    "NEWS.md": "2123"
  },
  "version": 2
}